# traffic-accidents

Road traffic accidents data from Estonia 2011-2019. 

## Data

File "Liiklusõnnetused 2011-2020.xlsx" was downloaded from <https://avaandmed.eesti.ee/datasets/inimkannatanutega-liiklusonnetuste-andmed> and 
preprocessed to data/liiklusonnetused.csv using scripts/import.R script.

```r
> library(readr); library(here)
> onnetused <- read_csv(here("data/liiklusonnetused.csv"))
> onnetused
# A tibble: 12,632 x 55
   juhtumi_nr  ühissõidukijuhi_os… valgustus_1 valgustus_2       veoautojuhi_osal… tüüpskeemi_nr
   <chr>                     <dbl> <chr>       <chr>                         <dbl>         <dbl>
 1 2000140000…                   1 Valge aeg   Valge aeg                         0           104
 2 2000140000…                   0 Valge aeg   Valge aeg                         0           401
 3 2000140000…                   1 Valge aeg   Valge aeg                         0           207
 4 2000140000…                   0 Pimeda aeg  Pimeda ajal valg…                 0           606
 5 2000150000…                   0 Valge aeg   Valge aeg                         0           505
 6 2210140000…                   0 Valge aeg   Valge aeg                         0           501
 7 2210140001…                   0 Valge aeg   Valge aeg                         0           601
 8 2210140002…                   1 Pimeda aeg  Pimeda ajal valg…                 0           998
 9 2230130056…                   0 Valge aeg   Valge aeg                         0           103
10 2230140009…                   1 Valge aeg   Valge aeg                         0           906
# … with 12,622 more rows, and 49 more variables: tüüpskeem_1 <chr>, tüüpskeem_2 <chr>,
#   tänav_(ppa) <chr>, turvavarustust_mitte_kasutanud_isiku_osalusel <dbl>,
#   teekatte_seisund_1 <chr>, teekatte_seisund_2 <chr>,
#   maastikusõiduki_juhi_osalusel...13 <dbl>, teekate <chr>, tee_tüüp_1 <chr>,
#   tee_tüüp_2 <chr>, tee_seisund <chr>, tee_tasasus <chr>, maja_nr_(ppa) <chr>,
#   tee_element_1 <chr>, tee_element_2...21 <chr>, mootorratturi_osalusel <dbl>,
#   mootorsõidukijuhi_osalusel <dbl>, mopeedijuhi_osalusel <dbl>, omavalitsus_(ppa) <chr>,
#   ristuv_tänav_(ppa) <chr>, sõiduautojuhi_osalusel <dbl>, asula <chr>,
#   maastikusõiduki_juhi_osalusel...29 <dbl>, alaealise_osalusel <dbl>, maakond_(ppa) <chr>,
…
